Advanced Data Manipulation Homework
…
What 5 countries have the highest total GDP over all years combined?

## # A tibble: 5 x 2
##          country Total.GDP
##            <chr>     <dbl>
## 1  United States  7.68e+13
## 2          Japan  2.54e+13
## 3          China  2.04e+13
## 4        Germany  1.95e+13
## 5 United Kingdom  1.33e+13

What countries and years had life expectancies of at least 80 years? N.b. only output the columns of interest: country, life expectancy and year (in that order).

## # A tibble: 22 x 3
##             country lifeExp  year
##               <chr>   <dbl> <int>
##  1        Australia    80.4  2002
##  2        Australia    81.2  2007
##  3           Canada    80.7  2007
##  4           France    80.7  2007
##  5 Hong Kong, China    80.0  1997
##  6 Hong Kong, China    81.5  2002
##  7 Hong Kong, China    82.2  2007
##  8          Iceland    80.5  2002
##  9          Iceland    81.8  2007
## 10           Israel    80.7  2007
## # ... with 12 more rows
…
Which combinations of continent (besides Asia) and year have the highest average population across all countries? N.b. your output should include all results sorted by highest average population. With what you already know, this one may stump you. See this Q&A for how to ungroup before arrangeing. This also behaves differently in more recent versions of dplyr.

## # A tibble: 48 x 3
##    continent  year mean.pop
##        <chr> <int>    <dbl>
##  1  Americas  2007 35954847
##  2  Americas  2002 33990910
##  3  Americas  1997 31876016
##  4  Americas  1992 29570964
##  5  Americas  1987 27310159
##  6  Americas  1982 25211637
##  7  Americas  1977 23122708
##  8  Americas  1972 21175368
##  9    Europe  2007 19536618
## 10    Europe  2002 19274129
## # ... with 38 more rows
…
Subset gm to only include observations from 1992 and store the results as gm1992. What kind of object is this?

## [1] "tbl_df"     "tbl"        "data.frame"

Bonus! Which observations indicate that the population of a country has decreased from the previous year and the life expectancy has increased from the previous year? See the vignette on window functions.

## Source: local data frame [36 x 6]
## Groups: country [22]
## 
## # A tibble: 36 x 6
##                   country continent  year lifeExp      pop gdpPercap
##                     <chr>     <chr> <int>   <dbl>    <int>     <dbl>
##  1            Afghanistan      Asia  1982    39.9 12881816       978
##  2 Bosnia and Herzegovina    Europe  1992    72.2  4256013      2547
##  3 Bosnia and Herzegovina    Europe  1997    73.2  3607000      4766
##  4               Bulgaria    Europe  2002    72.1  7661799      7697
##  5               Bulgaria    Europe  2007    73.0  7322858     10681
##  6                Croatia    Europe  1997    73.7  4444595      9876
##  7         Czech Republic    Europe  1997    74.0 10300707     16049
##  8         Czech Republic    Europe  2002    75.5 10256295     17596
##  9         Czech Republic    Europe  2007    76.5 10228744     22833
## 10      Equatorial Guinea    Africa  1977    42.0   192675       959
## # ... with 26 more rows
